module aut

go 1.14

require (
	github.com/denisenkom/go-mssqldb v0.0.0-20200428022330-06a60b6afbbc // indirect
	github.com/dgrijalva/jwt-go v3.2.0+incompatible
	github.com/erikstmartin/go-testdb v0.0.0-20160219214506-8d10e4a1bae5 // indirect
	github.com/go-sql-driver/mysql v1.5.0 // indirect
	github.com/gofrs/uuid v3.3.0+incompatible // indirect
	github.com/gorilla/handlers v1.4.2 // indirect
	github.com/gorilla/mux v1.7.0
	github.com/gorilla/websocket v1.4.2
	github.com/jinzhu/gorm v1.9.2
	github.com/jinzhu/inflection v0.0.0-20180308033659-04140366298a // indirect
	github.com/jinzhu/now v1.1.1 // indirect
	github.com/joho/godotenv v1.3.0
	github.com/lib/pq v1.1.1 // indirect
	github.com/mattn/go-sqlite3 v2.0.3+incompatible // indirect
	github.com/rs/cors v1.7.0
	golang.org/x/crypto v0.0.0-20190325154230-a5d413f7728c
)
